htbt: 72
rrt: 27
pout: [243.65050313275194, 0.89873849548840434, 0.70177435752808937, 0.41398394772418706, 0.0, 0.030085444147282314, 0.3110063646318228, 0.049980287093190905, 1.2390850247600611, 0.0, 0.41614433317437666]
bp1_sys: 114.5
bp1_dia: 62.88
